46 Okunen Monogatari - Harukanaru Eden e (Japan).sfc:0000642b: e220a2de00a00200b50029028500b5012902450018f001387600e888d0fa287afa60  . ........).....).E....8v.....(z.`
Bishoujo Senshi Sailor Moon S - Kurukkurin (Japan).sfc:000002a8: 5a08e230a200a002a59e29028500a59f2902450018f00138769ee888d0fa287afaa5  Z..0......).....).E....8v.....(z..
Doukyuusei 2 (Japan) (NP).sfc:0000026a: 5a08e230a200a002a57d29028520a57e2902452018f00138767de888d0fa287afaa5  Z..0.....}).. .~).E ...8v}....(z..
E.V.O. - Search for Eden (USA).sfc:000063e2: e220a2de00a00200b50029028500b5012902450018f001387600e888d0fa287afa60  . ........).....).E....8v.....(z.`
Kachou Shima Kousaku (Japan).sfc:00002de7: 60da5a08a2c4a002b52029028520b5212902452018f001387620e888d0fa287afaa5  `.Z...... ).. .!).E ...8v ....(z..
Kidou Senshi Gundam - Cross Dimension 0079 (Japan).sfc:000004db: 2b7afa68286be230ad091029028d1800ad0a1029024d180018f001386e09106e0a106e0b106e0c  +z.h(k.0...).......).M.....8n..n..n..n.
Kidou Senshi Z Gundam - Away to the Newtype (Japan).sfc:00000548: 2b7afa68286be230ad5c1129028d1800ad5d1129024d180018f001386e5c116e5d116e5e116e5f  +z.h(k.0.\.).....].).M.....8n\.n].n^.n_
Kunio no Oden (Japan).sfc:000015e8: 5a08e230a200a004bd000029028d560abd010029024d560a18f001387e0000e888d0f9a500287a  Z..0.......)..V....).MV....8~........(z
PowerFest 94 (USA).sfc:0004803b: ad5401f0fb20c695adb70729028dc707adb80729024dc70718f001386eb7076eb8076eb9076eba  .T... .....).......).M.....8n..n..n..n.
Shin Nekketsu Kouha - Kunio-tachi no Banka (Japan).sfc:00004112: e220a2cd00a00200b50029028501b5012902450118f001387600e888d0fa2b287afa  . ........).....).E....8v.....+(z.
Sugoro Quest++ - Dicenics (Japan).sfc:000019a4: e2304baba200a004bd000029028d1c0abd010029024d1c0a18f001387e0000e888d0f9a500c230  .0K........).......).M.....8~.........0
Super 20 Hab (Korea) (Pirate).sfc:000382be: ca10f7e649202e8fa51829028500a5192902450018f0013866186619661a661b661c  ....I ....).....).E....8f.f.f.f.f.
Super 20 Hab (Korea) (Pirate).sfc:000480c8: 10f5e609a200a007ada70729028500ada8072902450018f001387ea707e888d0f9ad2207f0  ...........)......).E....8~......."..
Super 20 Hab (Korea) (Pirate).sfc:000c74e5: 009d31038e300360a51829028500a5192902450018f0013866186619661a661b661c  ..1..0.`..).....).E....8f.f.f.f.f.
Super 20 Hab (Korea) (Pirate).sfc:000d71f0: 8e300368a868aa60a51829028500a5192902450018f0013866186619661a661b661c  .0.h.h.`..).....).E....8f.f.f.f.f.
Super 20 Hab (Korea) (Pirate).sfc:000dd320: 650d850c8cf90560ad000529028507ad01052902450718f001386e00056e01056e02056e03  e......`...)......).E....8n..n..n..n.
Super 20 Hab (Korea) (Pirate).sfc:000e6e6c: f002d635ca10f760a51829028500a5192902450018f001386618661960a9018d1640  ...5...`..).....).E....8f.f.`....@
Super Mad Champ (Japan).sfc:00005965: e220a25000a00200bd000029028d0800bd010029024d080018f001387e0000e888d0f9208fd928  . .P.......).......).M.....8~...... ..(
Super Mario All-Stars and Super Mario World (Europe).sfc:000181af: 5401f0fb2200c805adb70729028dc707adb80729024dc70718f001386eb7076eb8076eb9076eba  T..."......).......).M.....8n..n..n..n.
Super Mario All-Stars and Super Mario World (Europe).sfc:0006804b: ad5401f0fb209d96adb70729028dc707adb80729024dc70718f001386eb7076eb8076eb9076eba  .T... .....).......).M.....8n..n..n..n.
Super Mario All-Stars and Super Mario World (Europe).sfc:001072c8: 8d004258a200a002ad820729028500ad83072902450018f001387e8207e888d0f9205ffb22  ..BX.......)......).E....8~...... _."
Super Mario All-Stars and Super Mario World (Europe).sfc:001160fb: 00aa10b7e2302b6bad820729028500ad83072902450018f001386e82076e83076e84076e85  .....0+k...)......).E....8n..n..n..n.
Super Mario All-Stars (Europe).sfc:000181af: 5401f0fb2200c805adb70729028dc707adb80729024dc70718f001386eb7076eb8076eb9076eba  T..."......).......).M.....8n..n..n..n.
Super Mario All-Stars (Europe).sfc:0006804b: ad5401f0fb209d96adb70729028dc707adb80729024dc70718f001386eb7076eb8076eb9076eba  .T... .....).......).M.....8n..n..n..n.
Super Mario All-Stars (Europe).sfc:001072c8: 8d004258a200a002ad820729028500ad83072902450018f001387e8207e888d0f9205ffb22  ..BX.......)......).E....8~...... _."
Super Mario All-Stars (Europe).sfc:001160fb: 00aa10b7e2302b6bad820729028500ad83072902450018f001386e82076e83076e84076e85  .....0+k...)......).E....8n..n..n..n.
Super Mario All-Stars (Europe) (Wii).sfc:000181af: 5401f0fb2200c805adb70729028dc707adb80729024dc70718f001386eb7076eb8076eb9076eba  T..."......).......).M.....8n..n..n..n.
Super Mario All-Stars (Europe) (Wii).sfc:0006804b: ad5401f0fb209d96adb70729028dc707adb80729024dc70718f001386eb7076eb8076eb9076eba  .T... .....).......).M.....8n..n..n..n.
Super Mario All-Stars (Europe) (Wii).sfc:001072c8: 8d004258a200a002ad820729028500ad83072902450018f001387e8207e888d0f9205ffb22  ..BX.......)......).E....8~...... _."
Super Mario All-Stars (Europe) (Wii).sfc:001160fb: 00aa10b7e2302b6bad820729028500ad83072902450018f001386e82076e83076e84076e85  .....0+k...)......).E....8n..n..n..n.
Super Mario All-Stars + Super Mario World (USA).sfc:000181aa: 5401f0fb2200c805adb70729028dc707adb80729024dc70718f001386eb7076eb8076eb9076eba  T..."......).......).M.....8n..n..n..n.
Super Mario All-Stars + Super Mario World (USA).sfc:00068062: ad5401f0fb20a896adb70729028dc707adb80729024dc70718f001386eb7076eb8076eb9076eba  .T... .....).......).M.....8n..n..n..n.
Super Mario All-Stars + Super Mario World (USA).sfc:001072c8: 8d004258a200a002ad820729028500ad83072902450018f001387e8207e888d0f9205ffb22  ..BX.......)......).E....8~...... _."
Super Mario All-Stars + Super Mario World (USA).sfc:001160fb: 00aa10b7e2302b6bad820729028500ad83072902450018f001386e82076e83076e84076e85  .....0+k...)......).E....8n..n..n..n.
Super Mario All-Stars (USA, Europe) (Switch Online).sfc:000181aa: 5401f0fb2200c805adb70729028dc707adb80729024dc70718f001386eb7076eb8076eb9076eba  T..."......).......).M.....8n..n..n..n.
Super Mario All-Stars (USA, Europe) (Switch Online).sfc:00068062: ad5401f0fb20a896adb70729028dc707adb80729024dc70718f001386eb7076eb8076eb9076eba  .T... .....).......).M.....8n..n..n..n.
Super Mario All-Stars (USA, Europe) (Switch Online).sfc:001072c8: 8d004258a200a002ad820729028500ad83072902450018f001387e8207e888d0f9205efb22  ..BX.......)......).E....8~...... ^."
Super Mario All-Stars (USA, Europe) (Switch Online).sfc:001160fb: 00aa10b7e2302b6bad820729028500ad83072902450018f001386e82076e83076e84076e85  .....0+k...)......).E....8n..n..n..n.
Super Mario All-Stars (USA).sfc:000181aa: 5401f0fb2200c805adb70729028dc707adb80729024dc70718f001386eb7076eb8076eb9076eba  T..."......).......).M.....8n..n..n..n.
Super Mario All-Stars (USA).sfc:00068062: ad5401f0fb20a896adb70729028dc707adb80729024dc70718f001386eb7076eb8076eb9076eba  .T... .....).......).M.....8n..n..n..n.
Super Mario All-Stars (USA).sfc:001072c8: 8d004258a200a002ad820729028500ad83072902450018f001387e8207e888d0f9205efb22  ..BX.......)......).E....8~...... ^."
Super Mario All-Stars (USA).sfc:001160fb: 00aa10b7e2302b6bad820729028500ad83072902450018f001386e82076e83076e84076e85  .....0+k...)......).E....8n..n..n..n.
Super Mario All-Stars (USA) (Wii).sfc:000181aa: 5401f0fb2200c805adb70729028dc707adb80729024dc70718f001386eb7076eb8076eb9076eba  T..."......).......).M.....8n..n..n..n.
Super Mario All-Stars (USA) (Wii).sfc:00068062: ad5401f0fb20a896adb70729028dc707adb80729024dc70718f001386eb7076eb8076eb9076eba  .T... .....).......).M.....8n..n..n..n.
Super Mario All-Stars (USA) (Wii).sfc:001072c8: 8d004258a200a002ad820729028500ad83072902450018f001387e8207e888d0f9205efb22  ..BX.......)......).E....8~...... ^."
Super Mario All-Stars (USA) (Wii).sfc:001160fb: 00aa10b7e2302b6bad820729028500ad83072902450018f001386e82076e83076e84076e85  .....0+k...)......).E....8n..n..n..n.
Super Mario Collection (Japan) (Rev 1).sfc:000181a5: 5401f0fb2200c805adb70729028dc707adb80729024dc70718f001386eb7076eb8076eb9076eba  T..."......).......).M.....8n..n..n..n.
Super Mario Collection (Japan) (Rev 1).sfc:00068063: 5401f0fb2200d00fadb70729028dc707adb80729024dc70718f001386eb7076eb8076eb9076eba  T..."......).......).M.....8n..n..n..n.
Super Mario Collection (Japan) (Rev 1).sfc:001072c8: 8d004258a200a002ad820729028500ad83072902450018f001387e8207e888d0f9205ffb22  ..BX.......)......).E....8~...... _."
Super Mario Collection (Japan) (Rev 1).sfc:001160fb: 00aa10b7e2302b6bad820729028500ad83072902450018f001386e82076e83076e84076e85  .....0+k...)......).E....8n..n..n..n.
Super Mario Collection (Japan) (Rev 1) (Switch Online).sfc:000181a5: 5401f0fb2200c805adb70729028dc707adb80729024dc70718f001386eb7076eb8076eb9076eba  T..."......).......).M.....8n..n..n..n.
Super Mario Collection (Japan) (Rev 1) (Switch Online).sfc:00068063: 5401f0fb2200d00fadb70729028dc707adb80729024dc70718f001386eb7076eb8076eb9076eba  T..."......).......).M.....8n..n..n..n.
Super Mario Collection (Japan) (Rev 1) (Switch Online).sfc:001072c8: 8d004258a200a002ad820729028500ad83072902450018f001387e8207e888d0f9205ffb22  ..BX.......)......).E....8~...... _."
Super Mario Collection (Japan) (Rev 1) (Switch Online).sfc:001160fb: 00aa10b7e2302b6bad820729028500ad83072902450018f001386e82076e83076e84076e85  .....0+k...)......).E....8n..n..n..n.
Super Mario Collection (Japan) (Rev 1) (Wii).sfc:000181a5: 5401f0fb2200c805adb70729028dc707adb80729024dc70718f001386eb7076eb8076eb9076eba  T..."......).......).M.....8n..n..n..n.
Super Mario Collection (Japan) (Rev 1) (Wii).sfc:00068063: 5401f0fb2200d00fadb70729028dc707adb80729024dc70718f001386eb7076eb8076eb9076eba  T..."......).......).M.....8n..n..n..n.
Super Mario Collection (Japan) (Rev 1) (Wii).sfc:001072c8: 8d004258a200a002ad820729028500ad83072902450018f001387e8207e888d0f9205ffb22  ..BX.......)......).E....8~...... _."
Super Mario Collection (Japan) (Rev 1) (Wii).sfc:001160fb: 00aa10b7e2302b6bad820729028500ad83072902450018f001386e82076e83076e84076e85  .....0+k...)......).E....8n..n..n..n.
Super Mario Collection (Japan).sfc:000181a5: 5401f0fb2200c805adb70729028dc707adb80729024dc70718f001386eb7076eb8076eb9076eba  T..."......).......).M.....8n..n..n..n.
Super Mario Collection (Japan).sfc:00068063: 5401f0fb2200d00fadb70729028dc707adb80729024dc70718f001386eb7076eb8076eb9076eba  T..."......).......).M.....8n..n..n..n.
Super Mario Collection (Japan).sfc:001072c8: 8d004258a200a002ad820729028500ad83072902450018f001387e8207e888d0f9205efb22  ..BX.......)......).E....8~...... ^."
Super Mario Collection (Japan).sfc:001160fb: 00aa10b7e2302b6bad820729028500ad83072902450018f001386e82076e83076e84076e85  .....0+k...)......).E....8n..n..n..n.
