Aa Yakyuu Jinsei Icchokusen (Japan).nes:0007c673: 8a489848a29ea002b50029028500b5012902450018f001387600e888d0fa68a868aa  .H.H......).....).E....8v.....h.h.
Abadox (Japan).nes:0001c46c: 1c68a868aaa51c60b50029028500b5012902450018f001387600e888d0fa60488a48  .h.h...`..).....).E....8v.....`H.H
Abadox - The Deadly Inner War (USA).nes:0001c46c: 1c68a868aaa51c60b50029028500b5012902450018f001387600e888d0fa60488a48  .h.h...`..).....).E....8v.....`H.H
Adventures in the Magic Kingdom (Europe).nes:0001ffad: 804c95c4a2aca004b500290285eeb501290245ee18f001387600e888d0faa5ac1869  .L........).....).E....8v........i
Adventures in the Magic Kingdom (USA) (Beta 1).nes:0001ffad: 804cb1c4a2aca004b500290285eeb501290245ee18f001387600e888d0faa5ac1869  .L........).....).E....8v........i
Adventures in the Magic Kingdom (USA) (Beta 2).nes:0001ffad: 804cb1c4a2aca004b500290285eeb501290245ee18f001387600e888d0faa5ac1869  .L........).....).E....8v........i
Adventures in the Magic Kingdom (USA).nes:0001ffad: 804c95c4a2aca004b500290285eeb501290245ee18f001387600e888d0faa5ac1869  .L........).....).E....8v........i
Adventures of Gilligan's Island, The (USA).nes:0001d6ca: 23956ca523956b60a56f29028520a5702902452018f00138666f6670667166726673  #.l.#.k`.o).. .p).E ...8fofpfqfrfs
America Oudan Ultra Quiz - Shijou Saidai no Tatakai (Japan).nes:0007d6e9: 8a489848a2a4a002b50029028500b5012902450018f001387600e888d0fa68a868aa  .H.H......).....).E....8v.....h.h.
Arabian Dream Scheherazade (Japan).nes:0001e523: c0a5d34a4a4a26c3a5e0290285d0a5e7290245d018f0013866e0a20776e0cad0fbe6  ...JJJ&...).....).E....8f...v.....
Athletic World (Europe).nes:0000015a: 054981993a051860ad2a0329028510ad2b032902451018f001386e2a036e2b036e2c036e2d  .I..:..`.*.)....+.).E....8n*.n+.n,.n-
Athletic World (USA).nes:00000161: 054981993e051860ad2e0329028510ad2f032902451018f001386e2e036e2f036e30036e31  .I..>..`...)..../.).E....8n..n/.n0.n1
Barker Bill's Trick Shooting (Europe).nes:0000c196: 60a90085c785c660ad200629028507ad21062902450718f001386e20066e21066e22066e23  `......`. .)....!.).E....8n .n!.n".n#
Barker Bill's Trick Shooting (Europe).nes:0000e3ef: 804ca6e32082e360adfe0529028df705adff0529024df70518f001386efe056eff0560ee020520  .L.. ..`...).......).M.....8n..n..`...
Barker Bill's Trick Shooting (USA).nes:0000c196: 60a90085c785c660ad200629028507ad21062902450718f001386e20066e21066e22066e23  `......`. .)....!.).E....8n .n!.n".n#
Barker Bill's Trick Shooting (USA).nes:0000e3ef: 804ca6e32082e360adfe0529028df705adff0529024df70518f001386efe056eff0560ee020520  .L.. ..`...).......).M.....8n..n..`...
Bikkuri Nekketsu Shin Kiroku! - Harukanaru Kin Medal (Japan).nes:0001f451: 8a489848a23ba002b50029028508b5012902450818f001387600e888d0fa68a868aa  .H.H.;....).....).E....8v.....h.h.
Bionic Commando (Europe).nes:0003de88: cd0620f2daf0e460a56729028517a5682902451718f0013866676668a56760841785  .. ....`.g)....h).E....8fgfh.g`...
Bionic Commando (USA).nes:0003de88: cd0620f2daf0e460a56729028517a5682902451718f0013866676668a56760841785  .. ....`.g)....h).E....8fgfh.g`...
Blades of Steel (Europe).nes:00004a3e: 9ded07a50399ed07a50029028503a5012902450318f0013866006601c602d0c24c99  ..........).....).E....8f.f.....L.
Blades of Steel (USA).nes:00004a3e: 9ded07a50399ed07a50029028503a5012902450318f0013866006601c602d0c24c99  ..........).....).E....8f.f.....L.
Championship Rally (Europe).nes:0001edc5: 85c5a94b85c085c1a5c029028519a5c12902451918f0013866c066c166c266c366c4  ...K......).....).E....8f.f.f.f.f.
Chip 'n Dale - Rescue Rangers (Europe).nes:0001c2e8: 0f6c0c00a200a004b5e429028500b5e52902450018f0013876e4e888d0fa600a0a0a  .l........).....).E....8v.....`...
Chip 'n Dale - Rescue Rangers (USA).nes:0001c2e8: 0f6c0c00a200a004b5e429028500b5e52902450018f0013876e4e888d0fa600a0a0a  .l........).....).E....8v.....`...
Chip to Dale no Daisakusen (Japan).nes:0001c2e8: 0f6c0c00a200a004b5e429028500b5e52902450018f0013876e4e888d0fa600a0a0a  .l........).....).E....8v.....`...
Clu Clu Land (World).nes:00003595: f002d651ca10f760a51029028500a5112902450018f0013866106611661266136614  ...Q...`..).....).E....8f.f.f.f.f.
Commando (USA).nes:0001e804: 02b1f1a00391f460a55229028507a5532902450718f001386652665360a900851ca0  .......`.R)....S).E....8fRfS`.....
Cowboy Kid (USA).nes:0003cef5: 8a489848a294a002b50029028500b5012902450018f001387600e888d0fa68a868aa  .H.H......).....).E....8v.....h.h.
Crash 'n' the Boys - Street Challenge (USA).nes:0001f62d: 8a489848a23ba002b50029028508b5012902450818f001387600e888d0fa68a868aa  .H.H.;....).....).E....8v.....h.h.
Daikaijuu Deburas (Japan).nes:0000ff79: 88d0f1aaa5082a60ad2b0429028510ad2c042902451018f001386e2b046e2c046e2d046e2e  ......*`.+.)....,.).E....8n+.n,.n-.n.
Daikaijuu Deburas (Japan).nes:0001dc79: 88d0f1aaa5082a60ad2b0429028510ad2c042902451018f001386e2b046e2c046e2d046e2e  ......*`.+.)....,.).E....8n+.n,.n-.n.
Dance Aerobics (USA).nes:0000f9c7: 8a6512aa4ca6f960ad240329028510ad25032902451018f001386e24036e25036e26036e27  .e..L..`.$.)....%.).E....8n$.n%.n&.n'
Darkwing Duck (Europe).nes:0001c2ea: 0f6c0c00a200a004b5e429028500b5e52902450018f0013876e4e888d0fa600a0a0a  .l........).....).E....8v.....`...
Darkwing Duck (Germany).nes:0001c2ea: 0f6c0c00a200a004b5e429028500b5e52902450018f0013876e4e888d0fa600a0a0a  .l........).....).E....8v.....`...
Darkwing Duck (USA) (Beta).nes:0001c2ea: 0f6c0c00a200a004b5e429028500b5e52902450018f0013876e4e888d0fa600a0a0a  .l........).....).E....8v.....`...
Darkwing Duck (USA).nes:0001c2ea: 0f6c0c00a200a004b5e429028500b5e52902450018f0013876e4e888d0fa600a0a0a  .l........).....).E....8v.....`...
Defender II (USA).nes:00000415: 009d31038e300360a51d29028500a51e2902450018f00138661d661e661f66206621  ..1..0.`..).....).E....8f.f.f.f f!
Destiny of an Emperor (USA).nes:0003fddf: 303d36ffa2aca004b500290285eeb501290245ee18f001387600e888d0faa5ac1869  0=6.......).....).E....8v........i
Donkey Kong Classics (USA, Europe).nes:000067d2: 8e300368a868aa60a51829028500a5192902450018f0013866186619661a661b661c  .0.h.h.`..).....).E....8f.f.f.f.f.
Donkey Kong (Japan).nes:00003504: 009d31038e300360a51829028500a5192902450018f0013866186619661a661b661c  ..1..0.`..).....).E....8f.f.f.f.f.
Donkey Kong Jr. (Japan).nes:00003212: 8e300368a868aa60a51829028500a5192902450018f0013866186619661a661b661c  .0.h.h.`..).....).E....8f.f.f.f.f.
Donkey Kong Jr. + Jr. Lesson (Japan).nes:00003452: 31038e300368aa60a51829028500a5192902450018f0013866186619661a661b661c  1..0.h.`..).....).E....8f.f.f.f.f.
Donkey Kong Jr. Math (USA, Europe).nes:000034da: 31038e300368aa60a51829028500a5192902450018f0013866186619661a661b661c  1..0.h.`..).....).E....8f.f.f.f.f.
Donkey Kong Jr. no Sansuu Asobi (Japan).nes:0000353d: 31038e300368aa60a51829028500a5192902450018f0013866186619661a661b661c  1..0.h.`..).....).E....8f.f.f.f.f.
Donkey Kong Jr. (USA) (GameCube Edition).nes:00007200: 8e300368a868aa60a51829028500a5192902450018f0013866186619661a661b661c  .0.h.h.`..).....).E....8f.f.f.f.f.
Donkey Kong Jr. (World) (Rev A).nes:00003200: 8e300368a868aa60a51829028500a5192902450018f0013866186619661a661b661c  .0.h.h.`..).....).E....8f.f.f.f.f.
Donkey Kong (World) (Rev A).nes:000034f5: 009d31038e300360a51829028500a5192902450018f0013866186619661a661b661c  ..1..0.`..).....).E....8f.f.f.f.f.
Double Dragon (Europe).nes:0001fe19: 8a489848a213a002b50029028500b5012902450018f001387600e888d0fa68a868aa  .H.H......).....).E....8v.....h.h.
Double Dragon III - The Sacred Stones (Europe).nes:0001fe60: 8a489848a217a002b50029028504b5012902450418f001387600e888d0fa68a868aa  .H.H......).....).E....8v.....h.h.
Double Dragon III - The Sacred Stones (USA).nes:0001fe60: 8a489848a217a002b50029028504b5012902450418f001387600e888d0fa68a868aa  .H.H......).....).E....8v.....h.h.
Double Dragon II - The Revenge (Europe).nes:0001fe3d: 8a489848a217a002b50029028504b5012902450418f001387600e888d0fa68a868aa  .H.H......).....).E....8v.....h.h.
Double Dragon II - The Revenge (USA).nes:0001fe4d: 8a489848a217a002b50029028504b5012902450418f001387600e888d0fa68a868aa  .H.H......).....).E....8v.....h.h.
Double Dragon II - The Revenge (USA) (Rev A).nes:0001fe3d: 8a489848a217a002b50029028504b5012902450418f001387600e888d0fa68a868aa  .H.H......).....).E....8v.....h.h.
Double Dragon (USA).nes:0001fdff: 8a489848a213a002b50029028500b5012902450018f001387600e888d0fa68a868aa  .H.H......).....).E....8v.....h.h.
Downtown - Nekketsu Koushinkyoku - Soreyuke Daiundoukai (Japan).nes:0001feb9: 8a489848a21da002b5002902850db5012902450d18f001387600e888d0fa68a868aa  .H.H......).....).E....8v.....h.h.
Downtown - Nekketsu Koushinkyoku - Soreyuke Daiundoukai (Japan).nes:0003feb9: 8a489848a21da002b5002902850db5012902450d18f001387600e888d0fa68a868aa  .H.H......).....).E....8v.....h.h.
Downtown - Nekketsu Monogatari (Japan).nes:0001fddf: 8a489848a218a002b50029028504b5012902450418f001387600e888d0fa68a868aa  .H.H......).....).E....8v.....h.h.
Dragon Spirit - Aratanaru Densetsu (Japan).nes:0001c478: 2034343414302c18a53a29028500a53b2902450018f00138663c663b663aad14046d   444.0,..:)....;).E....8f<f;f:...m
Dragon Spirit - The New Legend (USA).nes:0001c499: 2034343414302c18a53a29028500a53b2902450018f00138663c663b663aad14046d   444.0,..:)....;).E....8f<f;f:...m
Dr. Mario (Europe).nes:00003782: a90065069d040160b50029028500b5012902450018f001387600e888d0fa60a9008d  ..e....`..).....).E....8v.....`...
Dr. Mario (Europe).nes:000052bd: e0c898c904d0f660a5eb29028dff06a5ec29024dff0618f0013866eb66ec60ffffffffff  .......`..)......).M.....8f.f.`.....
Dr. Mario (Japan, USA).nes:00003779: a90065069d040160b50029028500b5012902450018f001387600e888d0fa60a9008d  ..e....`..).....).E....8v.....`...
Dr. Mario (Japan, USA).nes:0000529d: e0c898c904d0f660a5eb29028dff06a5ec29024dff0618f0013866eb66ec60a6edfeda06  .......`..)......).M.....8f.f.`.....
Dr. Mario (Japan, USA) (Rev A).nes:00003793: a90065069d040160b50029028500b5012902450018f001387600e888d0fa60a9008d  ..e....`..).....).E....8v.....`...
Dr. Mario (Japan, USA) (Rev A).nes:0000529d: e0c898c904d0f660a5eb29028dff06a5ec29024dff0618f0013866eb66ec60a6edfeda06  .......`..)......).M.....8f.f.`.....
Dr. Mario (USA) (Beta).nes:00003772: a90065069d040160b50029028500b5012902450018f001387600e888d0fa60a9008d  ..e....`..).....).E....8v.....`...
Dr. Mario (USA) (Beta).nes:0000529d: e0c898c904d0f660a5eb29028dff06a5ec29024dff0618f0013866eb66ec60a6edfeda06  .......`..)......).M.....8f.f.`.....
Duck Hunt (World).nes:00000590: b9c300d0d01890d2adec0529028507aded052902450718f001386eec056eed056eee056eef  ...........)......).E....8n..n..n..n.
DuckTales (Europe).nes:0001c2f2: 0f6c0c00a200a004b5c029028500b5c12902450018f0013876c0e888d0fa60a5ff29  .l........).....).E....8v.....`..)
DuckTales (USA) (Beta).nes:0001c2ec: 0f6c0c00a200a004b5c029028500b5c12902450018f0013876c0e888d0fa60a5ff29  .l........).....).E....8v.....`..)
DuckTales (USA).nes:0001c2f2: 0f6c0c00a200a004b5c029028500b5c12902450018f0013876c0e888d0fa60a5ff29  .l........).....).E....8v.....`..)
Dungeon Kid (Japan).nes:0001c4cb: 8a489848a265a002b50029028500b5012902450018f001387600e888d0fa68a868aa  .H.H.e....).....).E....8v.....h.h.
Earth Bound (USA) (Proto).nes:00036036: b0c898c904d0f660a5bb29028dff07a5bc29024dff0718f0013866bb66bc60a6bdfeda07  .......`..)......).M.....8f.f.`.....
Earth Bound (USA) (Proto).nes:000380c4: b0c898c904d0f660a5bb29028dff07a5bc29024dff0718f0013866bb66bc60a6bdfeda07  .......`..)......).M.....8f.f.`.....
Egypt (Japan).nes:000007fc: 1b953aa51b953960ad200329028518ad21032902451818f001386e20036e21036e22036e23  ..:...9`. .)....!.).E....8n .n!.n".n#
Excitebike (Europe).nes:0000132e: f002d621ca10f760a51829028500a5192902450018f0013866186619661a661b661c  ...!...`..).....).E....8f.f.f.f.f.
Excitebike (Japan, USA).nes:0000132e: f002d621ca10f760a51829028500a5192902450018f0013866186619661a661b661c  ...!...`..).....).E....8f.f.f.f.f.
Excitebike (USA) (GameCube Edition).nes:0000132e: f002d621ca10f760a51829028500a5192902450018f0013866186619661a661b661c  ...!...`..).....).E....8f.f.f.f.f.
Exciting Boxing (Japan).nes:0001ea4e: 1303a9008d0f0360ad150329028520ad16032902452018f001386e15036e16036e17036e18  .......`...).. ...).E ...8n..n..n..n.
Exciting Rally - World Rally Championship (Japan).nes:0001eda7: 85c5a94b85c085c1a5c029028519a5c12902451918f0013866c066c166c266c366c4  ...K......).....).E....8f.f.f.f.f.
Exerion (Japan) (En) (Proto) [b].nes:000033db: 868e848fa2c8a003b500290285c6b501290245c618f001387600e88810faa68ea48f  ..........).....).E....8v.........
Family BASIC (Japan) (v2.0a).nes:00006df0: f002d621ca10f760a55129028500a5522902450018f0013866516652665366546655  ...!...`.Q)....R).E....8fQfRfSfTfU
Family BASIC (Japan) (v2.1a).nes:00006de0: f002d621ca10f760a55129028500a5522902450018f0013866516652665366546655  ...!...`.Q)....R).E....8fQfRfSfTfU
Family Trainer 1 - Athletic World (Japan).nes:00000154: 054981993e051860ad2e0329028510ad2f032902451018f001386e2e036e2f036e30036e31  .I..>..`...)..../.).E....8n..n/.n0.n1
Family Trainer 1 - Athletic World (Japan) (Rev 1).nes:00000154: 054981993e051860ad2e0329028510ad2f032902451018f001386e2e036e2f036e30036e31  .I..>..`...)..../.).E....8n..n/.n0.n1
Family Trainer 2 - Running Stadium (Japan).nes:000001c8: 0449819903041860ad000329028510ad01032902451018f001386e00036e01036e02036e03  .I.....`...)......).E....8n..n..n..n.
Family Trainer 3 - Aerobics Studio (Japan).nes:0000017d: 8a6512aa4c5c8160ad290329028510ad2a032902451018f001386e29036e2a036e2b036e2c  .e..L\.`.).)....*.).E....8n).n*.n+.n,
Family Trainer 5 - Meiro Daisakusen (Japan).nes:0001cb39: 039d2003cad0f460ad280329028518ad29032902451818f001386e28036e29036e2a036e2b  .. ....`.(.)....).).E....8n(.n).n*.n+
Family Trainer 6 - Manhattan Police (Japan).nes:0001f2ef: 039d3103cad0f460ad3b0329028518ad3c032902451818f001386e3b036e3c036e3d036e3e  ..1....`.;.)....<.).E....8n;.n<.n=.n>
Family Trainer 7 - Daiundoukai (Japan).nes:000010d4: 039d3603cad0f460ad3f0329028518ad40032902451818f001386e3f036e40036e41036e42  ..6....`.?.)....@.).E....8n?.n@.nA.nB
Family Trainer 8 - Totsugeki! Fuuun Takeshi-jou (Japan).nes:00000ea4: 039d1103cad0f460a54929028520a54a2902452018f001386649664a664b664c664d  .......`.I).. .J).E ...8fIfJfKfLfM
Fantasy Zone (USA) (Unl).nes:0000c1f1: 8a489848a267a002b50029028500b5012902450018f001387600e888d0fa68a868aa  .H.H.g....).....).E....8v.....h.h.
Flintstones, The - The Rescue of Dino & Hoppy (Europe).nes:0001d517: e285e385e485e560ad590629028510ad5a062902451018f001386e59066e5a066e5b066e5c  .......`.Y.)....Z.).E....8nY.nZ.n[.n\
Flintstones, The - The Rescue of Dino & Hoppy (Japan).nes:0001d55a: 0899580688d0fa60ad590629028510ad5a062902451018f001386e59066e5a066e5b066e5c  ..X....`.Y.)....Z.).E....8nY.nZ.n[.n\
Flintstones, The - The Rescue of Dino & Hoppy (USA).nes:0001d542: e285e385e485e560ad590629028510ad5a062902451018f001386e59066e5a066e5b066e5c  .......`.Y.)....Z.).E....8nY.nZ.n[.n\
Flintstones, The - The Surprise at Dinosaur Peak (Europe).nes:0001d376: 0899850688d0fa60ad860629028510ad87062902451018f001386e86066e87066e88066e89  .......`...)......).E....8n..n..n..n.
Flintstones, The - The Surprise at Dinosaur Peak! (USA).nes:0001d379: 0899850688d0fa60ad860629028510ad87062902451018f001386e86066e87066e88066e89  .......`...)......).E....8n..n..n..n.
Flying Dragon - The Secret Scroll (USA).nes:0001c4a8: c8b10b850e6c0d00a5e029028500a5e72902450018f0013866e0a20776e0cad0fb60  .....l....).....).E....8f...v....`
Ganbare Pennant Race! (Japan).nes:0001ce9f: ce4c8dcea5f3d002a51a290285bfa5f4290245bf18f0013866f366f46008488a4898  .L........).....).E....8f.f.`.H.H.
Gargoyle's Quest II (Europe).nes:0001c3fd: 00a29f9aa200a004b5e429028500b5e52902450018f0013876e4e888d0fa2014c420  ..........).....).E....8v..... ..
Gargoyle's Quest II (USA).nes:0001c3fd: 00a29f9aa200a004b5e429028500b5e52902450018f0013876e4e888d0fa2014c420  ..........).....).E....8v..... ..
Gimmi a Break - Shijou Saikyou no Quiz Ou Ketteisen 2 (Japan).nes:0003c255: 8a489848a28fa002b50029028500b5012902450018f001387600e888d0fa68a868aa  .H.H......).....).E....8v.....h.h.
Golf '92, The (Japan).nes:0001df02: ff8d2b00a22ba002b50029028d3000b50129024d300018f001387600e888d0faad2b0060  ..+..+....)..0...).M0....8v......+.`
Gomoku Narabe (Japan).nes:00000ad1: 0520a5148d052060a53829028507a5392902450718f0013866386639663a663b663c  . .... `.8)....9).E....8f8f9f:f;f<
Gorilla Man, The (Japan).nes:0007c4d1: 8a489848a26ca002b50029028500b5012902450018f001387600e888d0fa68a868aa  .H.H.l....).....).E....8v.....h.h.
Great Boxing - Rush Up (Japan).nes:0001c2e0: 8a489848a291a002b50029028500b5012902450018f001387600e888d0fa68a868aa  .H.H......).....).E....8v.....h.h.
Gumshoe (USA, Europe).nes:0001d0bd: 453125318df10560adf00729028df207adf10729024df20718f001386ef0076ef10760a622e88e  E1%1...`...).......).M.....8n..n..`."..
Gun.Smoke (Europe).nes:0001ff14: ff8d0020a2aca004b50029028500b5012902450018f001387600e888d0fae6aca54a  ... ......).....).E....8v........J
Gun.Smoke (USA).nes:0001ff14: ff8d0020a2aca004b50029028500b5012902450018f001387600e888d0fae6aca54a  ... ......).....).E....8v........J
Hello Kitty World (Japan).nes:00004329: 00c898c904d0f660a50b2902851fa50c2902451f18f00138660b660c60a60dfe5a02  .......`..).....).E....8f.f.`...Z.
Hiryuu no Ken - Ougi no Sho (Japan).nes:0001c4a8: c8b10b850e6c0d00a5e029028500a5e72902450018f0013866e0a20776e0cad0fb60  .....l....).....).E....8f...v....`
Hitler no Fukkatsu - Top Secret (Japan).nes:0003ddc5: 257a2097daf0e260a56729028517a5682902451718f0013866676668a56760841785  %z ....`.g)....h).E....8fgfh.g`...
Honoo no Toukyuuji - Dodge Danpei (Japan).nes:0001f833: 404c82f8a201a002bd7d0229028d7d02bd7e0229024d7d0218f001387e7d02e888d0f960a90085  @L.......}.)..}..~.).M}....8~}.....`...
HVC Kensa Cassette Controller Test (Japan).nes:00000708: 7de62027e74c55e6a53029028540a5312902454018f0013866306631a53029073869  }. '.LU..0)..@.1).E@...8f0f1.0).8i
HVC Kensa Cassette Controller Test (Japan).nes:00002708: 7de62027e74c55e6a53029028540a5312902454018f0013866306631a53029073869  }. '.LU..0)..@.1).E@...8f0f1.0).8i
Hyokkori Hyoutan-jima - Nazo no Kaizokusen (Japan).nes:0001e79a: faa9008554855560ad8c0529028510ad8d052902451018f001386e8c056e8d056e8e056e8f  ....T.U`...)......).E....8n..n..n..n.
Ice Climber (Japan).nes:00000ade: a200a005a518d002a93729028500a5192902450018f001387618e888d0fa602035cb  .........7).....).E....8v.....` 5.
Ice Climber (USA, Europe).nes:00000ade: a200a005a518d002a93729028500a5192902450018f001387618e888d0fa602035cb  .........7).....).E....8v.....` 5.
Ike Ike! Nekketsu Hockey-bu - Subette Koronde Dairantou (Japan).nes:0001f414: 8a489848a248a004b50029028508b5012902450818f001387600e888d0fa68a868aa  .H.H.H....).....).E....8v.....h.h.
Jigoku Gokuraku Maru (Japan).nes:0001f39f: cad0f5aaa5106a60a57229028518a5732902451818f0013866726673667466756676  ......j`.r)....s).E....8frfsftfufv
Joy Mech Fight (Japan).nes:0003e8a9: 0068a868aaa5e060b50029028500b5012902450018f001387600e888d0fa60861284  .h.h...`..).....).E....8v.....`...
Kabuki - Quantum Fighter (Europe).nes:0001f39f: cad0f5aaa5106a60a57229028518a5732902451818f0013866726673667466756676  ......j`.r)....s).E....8frfsftfufv
Kabuki - Quantum Fighter (USA).nes:0001f39f: cad0f5aaa5106a60a57229028518a5732902451818f0013866726673667466756676  ......j`.r)....s).E....8frfsftfufv
Karakuri Kengou Den - Musashi Lord - Karakuri Jin Hashiru (Japan).nes:00010143: 4a4aa610209bf960adb80529028510adb9052902451018f001386eb8056eb9056eba056ebb  JJ.. ..`...)......).E....8n..n..n..n.
Kid Icarus (Europe) (Rev A).nes:00012267: a14c2ca2201ea260a5ef29028d1f03a5f029024d1f0318f0013866ef66f060a900f00aa9  .L,. ..`..)......).M.....8f.f.`.....
Kid Icarus (USA, Europe).nes:00012267: a14c2ca2201ea260a5ef29028d1f03a5f029024d1f0318f0013866ef66f060a900f00aa9  .L,. ..`..)......).M.....8f.f.`.....
KlashBall (USA).nes:0001ed66: 1a051af0f6686048a50d2902850fa50e2902450f18f00138660d660e68850fa50d65  .....h`H..).....).E....8f.f.h....e
Konamic Sports in Seoul (Japan).nes:0001c1df: 06c8d0f6e8d0f160a53e29028588a53f2902458818f00138663e663fe612a510c903  .......`.>)....?).E....8f>f?......
Kung Fu (Europe).nes:00000358: ca10f7e64920dd8fa51829028500a5192902450018f0013866186619661a661b661c  ....I ....).....).E....8f.f.f.f.f.
Kung-Fu Heroes (USA).nes:000067ed: 10f918690a850160a5e029028500a5e72902450018f0013866e0a20776e0cad0fb60  ...i...`..).....).E....8f...v....`
Kung Fu (Japan, USA).nes:00000343: ca10f7e64920c58fa51829028500a5192902450018f0013866186619661a661b661c  ....I ....).....).E....8f.f.f.f.f.
Kunio-kun no Nekketsu Soccer League (Japan).nes:0001ee45: 8a489848a245a002b5002902850cb5012902450c18f001387600e888d0fa68a868aa  .H.H.E....).....).E....8v.....h.h.
Legend of Zelda, The (Europe).nes:0001e54e: 03202de6a218a00db50029028500b5012902450018f001387600e888d0faa90020ac  . -.......).....).E....8v....... .
Legend of Zelda, The (Europe) (Rev A).nes:0001e54e: 03202de6a218a00db50029028500b5012902450018f001387600e888d0faa90020ac  . -.......).....).E....8v....... .
Legend of Zelda, The (USA).nes:0001e54e: 03202de6a218a00db50029028500b5012902450018f001387600e888d0faa90020ac  . -.......).....).E....8v....... .
Legend of Zelda, The (USA) (Rev A) (GameCube Edition).nes:0001e54e: 03202de6a218a00db50029028500b5012902450018f001387600e888d0faa90020ac  . -.......).....).E....8v....... .
Legend of Zelda, The (USA) (Rev A).nes:0001e54e: 03202de6a218a00db50029028500b5012902450018f001387600e888d0faa90020ac  . -.......).....).E....8v....... .
Legend of Zelda, The (USA) (Rev B) (GameCube Edition).nes:0001e54e: 03202de6a218a00db50029028500b5012902450018f001387600e888d0faa90020ac  . -.......).....).E....8v....... .
Little Mermaid - Ningyo Hime (Japan) (Beta).nes:0001c25c: 0f6c0c00a200a004b5e429028500b5e52902450018f0013876e4e888d0fa60a5ff29  .l........).....).E....8v.....`..)
Little Mermaid - Ningyo Hime (Japan).nes:0001c25c: 0f6c0c00a200a004b5e429028500b5e52902450018f0013876e4e888d0fa60a5ff29  .l........).....).E....8v.....`..)
Little Mermaid, The (USA).nes:0001c25c: 0f6c0c00a200a004b5e429028500b5e52902450018f0013876e4e888d0fa60a5ff29  .l........).....).E....8v.....`..)
M82 Game Selectable Working Product Display (Europe).nes:0000013d: 9d02036868a90160b50029028500b5012902450018f001387600e888d0fa60a9008d  ...hh..`..).....).E....8v.....`...
Magic of Scheherazade, The (USA).nes:0001e512: a5c085c1a5d285c0a5e0290285d0a5e7290245d018f0013866e0a20776e0cad0fbe6  ..........).....).E....8f...v.....
Mahjong (Japan) (Rev A).nes:00003cce: 8e200360a200a020a52329028500a5242902450018f001387623e888d0fa60202dfd  . .`... .#)....$).E....8v#....` -.
Mahjong (Japan) (Rev B).nes:00003cce: 8e200360a200a020a52329028500a5242902450018f001387623e888d0fa60202dfd  . .`... .#)....$).E....8v#....` -.
Mahjong RPG Dora Dora Dora (Japan).nes:0001c949: 44857360a200a002a57329028575a5742902457518f001387673e888d0faa5736000  D.s`.....s)..u.t).Eu...8vs.....s`.
Maison Ikkoku (Japan).nes:0003eae0: 8a489848a24fa002b50029028500b5012902450018f001387600e888d0fa68a868aa  .H.H.O....).....).E....8v.....h.h.
Majou Densetsu II - Daimashikyou Galious (Japan).nes:0001d52c: ca10f860a224a002b50029028500b5012902450018f001387600e888d0fa60187db0  ...`.$....).....).E....8v.....`.}.
Mario Bros. Classic (Europe).nes:00004a61: 0085b6a90085b460ad000529028507ad01052902450718f001386e00056e01056e02056e03  .......`...)......).E....8n..n..n..n.
Mario Bros. (Europe) (Rev A).nes:0000134d: 650d850c8cf90560ad000529028507ad01052902450718f001386e00056e01056e02056e03  e......`...)......).E....8n..n..n..n.
Mario Bros. (USA) (GameCube Edition).nes:00005330: 650d850c8cf90560ad000529028507ad01052902450718f001386e00056e01056e02056e03  e......`...)......).E....8n..n..n..n.
Mario Bros. (World).nes:00001330: 650d850c8cf90560ad000529028507ad01052902450718f001386e00056e01056e02056e03  e......`...)......).E....8n..n..n..n.
Mega Man 3 (Europe).nes:0003c807: 0f6c0c00a200a004b5e429028500b5e52902450018f0013876e4e888d0fa60a52285  .l........).....).E....8v.....`.".
Mega Man 3 (Europe) (Rev A).nes:0001c405: 00a29f9aa200a004b5e429028500b5e52902450018f0013876e4e888d0fa201cc420  ..........).....).E....8v..... ..
Mega Man 3 (Europe) (Rev A).nes:0003c83f: 0f6c0c00a200a004b5e429028500b5e52902450018f0013876e4e888d0fa60a52285  .l........).....).E....8v.....`.".
Mega Man 3 (USA) (Beta).nes:0003c807: 0f6c0c00a200a004b5e429028500b5e52902450018f0013876e4e888d0fa60a52285  .l........).....).E....8v.....`.".
Mega Man 3 (USA).nes:0003c807: 0f6c0c00a200a004b5e429028500b5e52902450018f0013876e4e888d0fa60a52285  .l........).....).E....8v.....`.".
Mega Man 4 (Europe).nes:0007c4e5: 00a27f9aa200a004b5e429028500b5e52902450018f0013876e4e888d0faa5f648a9  ..........).....).E....8v.......H.
Mega Man 4 (USA).nes:0007c4e5: 00a27f9aa200a004b5e429028500b5e52902450018f0013876e4e888d0faa5f648a9  ..........).....).E....8v.......H.
Mega Man 4 (USA) (Rev A).nes:0007c4e5: 00a27f9aa200a004b5e429028500b5e52902450018f0013876e4e888d0faa5f648a9  ..........).....).E....8v.......H.
Mega Man 5 (Europe).nes:0003db53: ffa2af9aa200a004b5e429028500b5e52902450018f0013876e4e888d0fa206adb20  ..........).....).E....8v..... j.
Mega Man 5 (USA).nes:0003db55: ffa2af9aa200a004b5e429028500b5e52902450018f0013876e4e888d0fa206cdb20  ..........).....).E....8v..... l.
Mega Man 6 (USA).nes:0007c89b: 20608a48a200a004b5df290285e1b5e0290245e118f0013876dfe888d0faa5df65f3   `.H......).....).E....8v.......e.
Meimon! Daisan Yakyuubu (Japan).nes:0001c2c3: 1504a51b9d140460ad1f0429028518ad20042902451818f001386e1f046e20046e21046e22  .......`...).... .).E....8n..n .n!.n"
Meng Huan - Xiang Shuai Chuan Qi Zhi Xue Hai Piao Ling (China) (Unl).nes:0003d90f: 2a0668a868aa6860ade00729028de807ade10729024de80718f001386ee0076ee1076ee2076ee3  *.h.h.h`...).......).M.....8n..n..n..n.
Michael Andretti's World GP (USA).nes:0001e945: cad0f5aaa5106a60a57a29028518a57b2902451818f00138667a667b667c667d667e  ......j`.z)....{).E....8fzf{f|f}f~
Mighty Final Fight (Europe).nes:0001c3c0: 0f10c660a200a004b5e429028500b5e52902450018f0013876e4e888d0faa59545e4  ...`......).....).E....8v.......E.
Mighty Final Fight (Japan).nes:0001c3c0: 0f10c660a200a004b5e429028500b5e52902450018f0013876e4e888d0faa59545e4  ...`......).....).E....8v.......E.
Mighty Final Fight (USA).nes:0001c3c0: 0f10c660a200a004b5e429028500b5e52902450018f0013876e4e888d0faa59545e4  ...`......).....).E....8v.......E.
Millipede - Kyodai Konchuu no Gyakushuu (Japan).nes:0000305f: f002d635ca10f760a51829028500a5192902450018f0013866186619661a661b661c  ...5...`..).....).E....8f.f.f.f.f.
Millipede (USA).nes:000030a3: f002d635ca10f760a51829028500a5192902450018f0013866186619661a661b661c  ...5...`..).....).E....8f.f.f.f.f.
Money Game II, The - Kabutochou no Kiseki (Japan).nes:0001ea9b: 1a051af0f6686048a50d2902850fa50e2902450f18f00138660d660e68850fa50d65  .....h`H..).....).E....8f.f.h....e
Monster Maker - 7 Tsu no Hihou (Japan).nes:0003c30b: 8885188d00206048a52e29028500a52f2902450018f00138662e662f688500a52e65  ..... `H..)..../).E....8f.f/h....e
Monster Party (USA).nes:0001c676: cad0f5aaa5106a60ad5f0429028518ad60042902451818f001386e5f046e60046e61046e62  ......j`._.)....`.).E....8n_.n`.na.nb
Mother (Japan).nes:000380ec: c8b1b085b34cd480a5bb29028dff07a5bc29024dff0718f0013866bb66bc60a6bdfeda07  .....L....)......).M.....8f.f.`.....
Motocross Champion (Japan).nes:0001c3d4: 3604a5139d350460ad390429028510ad3a042902451018f001386e39046e3a046e3b046e3c  6....5.`.9.)....:.).E....8n9.n:.n;.n<
Nakajima Satoru - F-1 Hero (Japan).nes:0001e945: cad0f5aaa5106a60a57a29028518a57b2902451818f00138667a667b667c667d667e  ......j`.z)....{).E....8fzf{f|f}f~
Nakajima Satoru Kanshuu - F-1 Hero 2 (Japan).nes:0001e945: cad0f5aaa5106a60a57a29028518a57b2902451818f00138667a667b667c667d667e  ......j`.z)....{).E....8fzf{f|f}f~
Nekketsu Kakutou Densetsu (Japan).nes:0001f9ff: 8a489848a248a004b50029028508b5012902450818f001387600e888d0fa68a868aa  .H.H.H....).....).E....8v.....h.h.
Nekketsu Kouha Kunio-kun (Japan).nes:00007d7e: 8a489848a213a002b50029028500b5012902450018f001387600e888d0fa68a868aa  .H.H......).....).E....8v.....h.h.
Nekketsu Kouha Kunio-kun (Japan).nes:0001fdfe: 8a489848a213a002b50029028500b5012902450018f001387600e888d0fa68a868aa  .H.H......).....).E....8v.....h.h.
Nekketsu Koukou Dodgeball-bu (Japan).nes:0001fe1f: 8a489848a213a002b50029028500b5012902450018f001387600e888d0fa68a868aa  .H.H......).....).E....8v.....h.h.
Nekketsu Koukou Dodgeball-bu - Soccer Hen (Japan).nes:0001feb9: 8a489848a217a002b50029028504b5012902450418f001387600e888d0fa68a868aa  .H.H......).....).E....8v.....h.h.
Nekketsu! Street Basket - Ganbare Dunk Heroes (Japan).nes:0001f9d3: 8a489848a248a004b50029028508b5012902450818f001387600e888d0fa68a868aa  .H.H.H....).....).E....8v.....h.h.
Nintendo - NTF2 System Cartridge (USA).nes:00000235: 9d02036868a90160b50029028500b5012902450018f001387600e888d0fa60a9008d  ...hh..`..).....).E....8v.....`...
Nintendo World Championships 1990 (USA).nes:00000a2c: a90065069d040160b50029028500b5012902450018f001387600e888d0fa60a9008d  ..e....`..).....).E....8v.....`...
Nintendo World Championships 1990 (USA).nes:0000605e: c8b1e085e34c46e0a5eb29028dff06a5ec29024dff0618f0013866eb66ec60a6edfeda06  .....LF...)......).M.....8f.f.`.....
Nintendo World Championships 1990 (USA).nes:00008127: 10f5e609a200a007ada70729028500ada8072902450018f001387ea707e888d0f9ad2207f0  ...........)......).E....8~......."..
Nintendo World Championships 1990 (USA).nes:00012810: a90065069d040160b50029028500b5012902450018f001387600e888d0fa60a9008d  ..e....`..).....).E....8v.....`...
Nintendo World Championships 1990 (USA).nes:000160a6: c8b1e085e34c8ee0a5eb29028dff06a5ec29024dff0618f0013866eb66ec60a6edfeda06  .....L....)......).M.....8f.f.`.....
Nintendo World Class Service - Control Deck Test Cartridge (USA).nes:0000013d: 9d02036868a90160b50029028500b5012902450018f001387600e888d0fa60a9008d  ...hh..`..).....).E....8v.....`...
Nintendo World Cup (Europe).nes:0001fe98: 8a489848a220a002b5002902850db5012902450d18f001387600e888d0fa68a868aa  .H.H. ....).....).E....8v.....h.h.
Nintendo World Cup (Europe) (Rev A).nes:0001fe98: 8a489848a220a002b5002902850db5012902450d18f001387600e888d0fa68a868aa  .H.H. ....).....).E....8v.....h.h.
Nintendo World Cup (Europe) (Rev B).nes:0001fe98: 8a489848a220a002b5002902850db5012902450d18f001387600e888d0fa68a868aa  .H.H. ....).....).E....8v.....h.h.
Nintendo World Cup (USA).nes:0001fe98: 8a489848a220a002b5002902850db5012902450d18f001387600e888d0fa68a868aa  .H.H. ....).....).E....8v.....h.h.
Over Horizon (Europe).nes:00018a0c: 8a489848a293a002b50029028500b5012902450018f001387600e888d0fa68a868aa  .H.H......).....).E....8v.....h.h.
Over Horizon (Europe).nes:0001c2d1: 8a489848a293a002b50029028500b5012902450018f001387600e888d0fa68a868aa  .H.H......).....).E....8v.....h.h.
Over Horizon (Japan).nes:00018a0c: 8a489848a293a002b50029028500b5012902450018f001387600e888d0fa68a868aa  .H.H......).....).E....8v.....h.h.
Over Horizon (Japan).nes:0001c2d1: 8a489848a293a002b50029028500b5012902450018f001387600e888d0fa68a868aa  .H.H......).....).E....8v.....h.h.
Palamedes (Japan).nes:000010d6: ef608a48a002a200ad820529028d8405ad830529024d840518f001387e8205e888d0f968aaad82  .`.H.......).......).M.....8~......h...
Palamedes (USA).nes:00001110: ef608a48a002a200ad820529028d8405ad830529024d840518f001387e8205e888d0f968aaad82  .`.H.......).......).M.....8~......h...
Parody World - Monster Party (Japan) (Proto).nes:0001c66d: cad0f5aaa5106a60ad5f0429028518ad60042902451818f001386e5f046e60046e61046e62  ......j`._.)....`.).E....8n_.n`.na.nb
Platoon (USA).nes:0001d4a9: 9d02036868a90160b50029028500b5012902450018f001387600e888d0fa60a9008d  ...hh..`..).....).E....8v.....`...
Platoon (USA) (Rev A).nes:0001d4a9: 9d02036868a90160b50029028500b5012902450018f001387600e888d0fa60a9008d  ...hh..`..).....).E....8v.....`...
Popeye (Japan).nes:00002e7c: f002d635ca10f760a51829028500a5192902450018f001386618661960a9018d1640  ...5...`..).....).E....8f.f.`....@
Popeye no Eigo Asobi (Japan).nes:000034fe: f002d635ca10f760a51829028500a5192902450018f001386618661960a9018d1640  ...5...`..).....).E....8f.f.`....@
Popeye (World) (Rev A).nes:00002e80: f002d635ca10f760a51829028500a5192902450018f001386618661960a9018d1640  ...5...`..).....).E....8f.f.`....@
Pro Yakyuu Satsujin Jiken! (Japan).nes:0003f69a: ff8d0020a200a004b52c29028500b52d2902450018f00138762ce888d0fae62c203e  ... .....,)....-).E....8v,....., >
Puzslot (Japan).nes:0001c171: cd4703b0af4cd5c0ad3e0329028503ad3f032902450318f001386e3e036e3f036e40036e41  .G...L...>.)....?.).E....8n>.n?.n@.nA
Q-bert (USA).nes:00000008: 0000000000000000a53c29028500a53d2902450018f00138663c663de61ba5182007  .........<)....=).E....8f<f=.... .
Red Arremer II (Japan).nes:0001c3fd: 00a29f9aa200a004b5e429028500b5e52902450018f0013876e4e888d0fa2014c420  ..........).....).E....8v..... ..
Renegade (USA).nes:0001fdfe: 8a489848a213a002b50029028500b5012902450018f001387600e888d0fa68a868aa  .H.H......).....).E....8v.....h.h.
River City Ransom (USA).nes:0001fddf: 8a489848a218a002b50029028504b5012902450418f001387600e888d0fa68a868aa  .H.H......).....).E....8v.....h.h.
Robocco Wars (Japan).nes:00035f91: 8a489848a291a002b50029028500b5012902450018f001387600e888d0fa68a868aa  .H.H......).....).E....8v.....h.h.
Robocco Wars (Japan).nes:0003c2e6: 8a489848a291a002b50029028500b5012902450018f001387600e888d0fa68a868aa  .H.H......).....).E....8v.....h.h.
Rockman 3 - Dr. Wily no Saigo! (Japan).nes:0003c807: 0f6c0c00a200a004b5e429028500b5e52902450018f0013876e4e888d0fa60a52285  .l........).....).E....8v.....`.".
Rockman 4 - Aratanaru Yabou!! (Japan).nes:0007c4e5: 00a27f9aa200a004b5e429028500b5e52902450018f0013876e4e888d0faa5f648a9  ..........).....).E....8v.......H.
Rockman 5 - Blues no Wana! (Japan).nes:0003db55: ffa2af9aa200a004b5e429028500b5e52902450018f0013876e4e888d0fa206cdb20  ..........).....).E....8v..... l.
Rockman 6 - Shijou Saidai no Tatakai!! (Japan).nes:0007c89b: 20608a48a200a004b5df290285e1b5e0290245e118f0013876dfe888d0faa5df65f3   `.H......).....).E....8v.......e.
Sanrio Carnival 2 (Japan).nes:000000d9: 00c898c904d0f660a50b2902851fa50c2902451f18f00138660b660c60a60dfeda06  .......`..).....).E....8f.f.`.....
SD Gundam - Gachapon Senshi 2 - Capsule Senki (Japan).nes:0001eebb: 1b9599a51b959860a5cb29028500a5cc2902450018f0013866cb66cc66cd66ce60aa  .......`..).....).E....8f.f.f.f.`.
Section-Z (Europe).nes:0001e9b9: 02a9f82502850260b50029028500b5012902450018f001387600e888d0fa60a9008d  ...%...`..).....).E....8v.....`...
Section-Z (USA).nes:0001e9b9: 02a9f82502850260b50029028500b5012902450018f001387600e888d0fa60a9008d  ...%...`..).....).E....8v.....`...
Senjou no Ookami (Japan).nes:0001e7fa: 02b1f1a00391f460a55229028507a5532902450718f001386652665360a900851ca0  .......`.R)....S).E....8fRfS`.....
Shanghai (Japan).nes:0001f9c1: 02a9f82502850260b50029028500b5012902450018f001387600e888d0fa60a9008d  ...%...`..).....).E....8v.....`...
Shanghai (Japan) (Sample).nes:0001f9c1: 02a9f82502850260b50029028500b5012902450018f001387600e888d0fa60a9008d  ...%...`..).....).E....8v.....`...
Shikinjou (Japan).nes:0001c29b: 8a489848a291a002b50029028500b5012902450018f001387600e888d0fa68a868aa  .H.H......).....).E....8v.....h.h.
Snow Bros. (Japan).nes:0001c823: 88d0f1aaa5082a60ad630529028510ad64052902451018f001386e63056e64056e65056e66  ......*`.c.)....d.).E....8nc.nd.ne.nf
Snow Brothers (Europe).nes:0001c7f5: c9802a0510851060ad630529028510ad64052902451018f001386e63056e64056e65056e66  ..*....`.c.)....d.).E....8nc.nd.ne.nf
Snow Brothers (USA).nes:0001c7f1: c9802a0510851060ad630529028510ad64052902451018f001386e63056e64056e65056e66  ..*....`.c.)....d.).E....8nc.nd.ne.nf
Soccer (Europe) (Rev A).nes:0000068a: 03290f60a524d027adf00729028507adf1072902450718f001386ef0076ef1076ef2076ef3  .).`.$.'...)......).E....8n..n..n..n.
Soccer (World).nes:0000068a: 03290f60a524d027adf00729028507adf1072902450718f001386ef0076ef1076ef2076ef3  .).`.$.'...)......).E....8n..n..n..n.
Sou Setsu Ryuu III - The Rosetta Stone (Japan).nes:0001fe60: 8a489848a217a002b50029028504b5012902450418f001387600e888d0fa68a868aa  .H.H......).....).E....8v.....h.h.
Sou Setsu Ryuu II - The Revenge (Japan) (Beta).nes:0001fe2d: 8a489848a217a002b50029028504b5012902450418f001387600e888d0fa68a868aa  .H.H......).....).E....8v.....h.h.
Sou Setsu Ryuu II - The Revenge (Japan).nes:0001fe2d: 8a489848a217a002b50029028504b5012902450418f001387600e888d0fa68a868aa  .H.H......).....).E....8v.....h.h.
Sou Setsu Ryuu (Japan) (Beta).nes:0001fdff: 8a489848a213a002b50029028500b5012902450018f001387600e888d0fa68a868aa  .H.H......).....).E....8v.....h.h.
Sou Setsu Ryuu (Japan).nes:0001fdff: 8a489848a213a002b50029028500b5012902450018f001387600e888d0fa68a868aa  .H.H......).....).E....8v.....h.h.
Spartan X (Japan).nes:00000345: ca10f7e649209f8fa51829028500a5192902450018f0013866186619661a661b661c  ....I ....).....).E....8f.f.f.f.f.
Stadium Events (Europe).nes:000001d9: 0449819903041860ad000329028510ad01032902451018f001386e00036e01036e02036e03  .I.....`...)......).E....8n..n..n..n.
Stadium Events (USA).nes:000001c7: 0449819903041860ad000329028510ad01032902451018f001386e00036e01036e02036e03  .I.....`...)......).E....8n..n..n..n.
Star Gate (Japan).nes:00000427: 009d31038e300360a51d29028500a51e2902450018f00138661d661e661f66206621  ..1..0.`..).....).E....8f.f.f.f f!
Street Cop (USA).nes:0001f35c: 00110012000a0009ad2f0329028518ad30032902451818f001386e2f036e30036e31036e32  ........./.)....0.).E....8n/.n0.n1.n2
Street Gangs (Europe).nes:0001fddf: 8a489848a218a002b50029028504b5012902450418f001387600e888d0fa68a868aa  .H.H......).....).E....8v.....h.h.
Study Box (Japan).nes:0000345e: 9d02036868a90160b50029028500b5012902450018f001387600e888d0fa60a9008d  ...hh..`..).....).E....8v.....`...
Sugoro Quest - Dice no Senshitachi (Japan).nes:0001fb49: 48a52448a234a004b50029028524b5012902452418f001387600e888d0fa68852468  H.$H.4....)..$..).E$...8v.....h.$h
Super Chinese (Japan).nes:000067ed: 10f918690a850160a5e029028500a5e72902450018f0013866e0a20776e0cad0fb60  ...i...`..).....).E....8f...v....`
Super Dodge Ball (USA).nes:0001fe1f: 8a489848a213a002b50029028500b5012902450018f001387600e888d0fa68a868aa  .H.H......).....).E....8v.....h.h.
Super Mario Bros. 3 (Europe).nes:0002cf72: 5820bdfea200a002ad810729028500ad82072902450018f001387e8107e888d0f92021d0a9  X .........)......).E....8~...... !..
Super Mario Bros. 3 (Europe).nes:0003d989: 64850560a200a009ad810729028500ad82072902450018f001387e8107e888d0f960804020  d..`.......)......).E....8~......`.@
Super Mario Bros. 3 (Japan).nes:0002cf45: 5820b7fea200a002ad810729028500ad82072902450018f001387e8107e888d0f920fdcfa9  X .........)......).E....8~...... ...
Super Mario Bros. 3 (Japan).nes:0003d981: 64850560a200a009ad810729028500ad82072902450018f001387e8107e888d0f960804020  d..`.......)......).E....8~......`.@
Super Mario Bros. 3 (Japan) (Rev A).nes:0002cf45: 5820b7fea200a002ad810729028500ad82072902450018f001387e8107e888d0f920fdcfa9  X .........)......).E....8~...... ...
Super Mario Bros. 3 (Japan) (Rev A).nes:0003d981: 64850560a200a009ad810729028500ad82072902450018f001387e8107e888d0f960804020  d..`.......)......).E....8~......`.@
Super Mario Bros. 3 (USA).nes:0002cf72: 5820b7fea200a002ad810729028500ad82072902450018f001387e8107e888d0f9202ad0a9  X .........)......).E....8~...... *..
Super Mario Bros. 3 (USA).nes:0003d990: 64850560a200a009ad810729028500ad82072902450018f001387e8107e888d0f960804020  d..`.......)......).E....8~......`.@
Super Mario Bros. 3 (USA) (Rev A).nes:0002cf72: 5820befea200a002ad810729028500ad82072902450018f001387e8107e888d0f9202ad0a9  X .........)......).E....8~...... *..
Super Mario Bros. 3 (USA) (Rev A).nes:0003d990: 64850560a200a009ad810729028500ad82072902450018f001387e8107e888d0f960804020  d..`.......)......).E....8~......`.@
Super Mario Bros. + Duck Hunt (Europe).nes:00000127: 10f5e609a200a007ada70729028500ada8072902450018f001387ea707e888d0f9ad2207f0  ...........)......).E....8~......."..
Super Mario Bros. + Duck Hunt (Europe).nes:0000c590: b9c300d0d01890d2adec0529028507aded052902450718f001386eec056eed056eee056eef  ...........)......).E....8n..n..n..n.
Super Mario Bros. + Duck Hunt (USA).nes:00000127: 10f5e609a200a007ada70729028500ada8072902450018f001387ea707e888d0f9ad2207f0  ...........)......).E....8~......."..
Super Mario Bros. + Duck Hunt (USA).nes:0000c590: b9c300d0d01890d2adec0529028507aded052902450718f001386eec056eed056eee056eef  ...........)......).E....8n..n..n..n.
Super Mario Bros. + Duck Hunt + World Class Track Meet (USA).nes:0000529d: 0449819903041860ad000329028510ad01032902451018f001386e00036e01036e02036e03  .I.....`...)......).E....8n..n..n..n.
Super Mario Bros. + Duck Hunt + World Class Track Meet (USA).nes:00008127: 10f5e609a200a007ada70729028500ada8072902450018f001387ea707e888d0f9ad2207f0  ...........)......).E....8~......."..
Super Mario Bros. + Duck Hunt + World Class Track Meet (USA).nes:00014590: b9c300d0d01890d2adec0529028507aded052902450718f001386eec056eed056eee056eef  ...........)......).E....8n..n..n..n.
Super Mario Bros. + Duck Hunt + World Class Track Meet (USA) (Rev A).nes:0000529d: 0449819903041860ad000329028510ad01032902451018f001386e00036e01036e02036e03  .I.....`...)......).E....8n..n..n..n.
Super Mario Bros. + Duck Hunt + World Class Track Meet (USA) (Rev A).nes:00008127: 10f5e609a200a007ada70729028500ada8072902450018f001387ea707e888d0f9ad2207f0  ...........)......).E....8~......."..
Super Mario Bros. + Duck Hunt + World Class Track Meet (USA) (Rev A).nes:00014590: b9c300d0d01890d2adec0529028507aded052902450718f001386eec056eed056eee056eef  ...........)......).E....8n..n..n..n.
Super Mario Bros. (Europe) (Rev A).nes:00000127: 10f5e609a200a007ada70729028500ada8072902450018f001387ea707e888d0f9ad2207f0  ...........)......).E....8~......."..
Super Mario Bros. + Tetris + Nintendo World Cup (Europe).nes:000001e8: a90065069d040160b50029028500b5012902450018f001387600e888d0fa60a9008d  ..e....`..).....).E....8v.....`...
Super Mario Bros. + Tetris + Nintendo World Cup (Europe).nes:0000ab66: a90065069d040160b50029028500b5012902450018f001387600e888d0fa60a9008d  ..e....`..).....).E....8v.....`...
Super Mario Bros. + Tetris + Nintendo World Cup (Europe).nes:0000e0a6: c8b1e085e34c8ee0a5eb29028dff06a5ec29024dff0618f0013866eb66ec60a6edfeda06  .....L....)......).M.....8f.f.`.....
Super Mario Bros. + Tetris + Nintendo World Cup (Europe).nes:00018127: 10f5e609a200a007ada70729028500ada8072902450018f001387ea707e888d0f9ad2207f0  ...........)......).E....8~......."..
Super Mario Bros. + Tetris + Nintendo World Cup (Europe).nes:0003fe98: 8a489848a220a002b5002902850db5012902450d18f001387600e888d0fa68a868aa  .H.H. ....).....).E....8v.....h.h.
Super Mario Bros. + Tetris + Nintendo World Cup (Europe) (Rev A).nes:000001e8: a90065069d040160b50029028500b5012902450018f001387600e888d0fa60a9008d  ..e....`..).....).E....8v.....`...
Super Mario Bros. + Tetris + Nintendo World Cup (Europe) (Rev A).nes:0000ab66: a90065069d040160b50029028500b5012902450018f001387600e888d0fa60a9008d  ..e....`..).....).E....8v.....`...
Super Mario Bros. + Tetris + Nintendo World Cup (Europe) (Rev A).nes:0000e0a6: c8b1e085e34c8ee0a5eb29028dff06a5ec29024dff0618f0013866eb66ec60a6edfeda06  .....L....)......).M.....8f.f.`.....
Super Mario Bros. + Tetris + Nintendo World Cup (Europe) (Rev A).nes:00018127: 10f5e609a200a007ada70729028500ada8072902450018f001387ea707e888d0f9ad2207f0  ...........)......).E....8~......."..
Super Mario Bros. + Tetris + Nintendo World Cup (Europe) (Rev A).nes:0003fe98: 8a489848a220a002b5002902850db5012902450d18f001387600e888d0fa68a868aa  .H.H. ....).....).E....8v.....h.h.
Super Mario Bros. (World).nes:00000127: 10f5e609a200a007ada70729028500ada8072902450018f001387ea707e888d0f9ad2207f0  ...........)......).E....8~......."..
Super Rugby (Japan).nes:0001c316: 0221201002212010ad2b042902852cad2c042902452c18f001386e2b046e2c046e2d046e2e  .! ..! ..+.)..,.,.).E,...8n+.n,.n-.n.
Super Spike V'Ball (Europe).nes:0001e834: 48a53a48a24aa002b5002902853ab5012902453a18f001387600e888d0fa68853a68  H.:H.J....)..:..).E:...8v.....h.:h
Super Spike V'Ball + Nintendo World Cup (USA).nes:0001f69d: 48a53a48a24aa002b5002902853ab5012902453a18f001387600e888d0fa68853a68  H.:H.J....)..:..).E:...8v.....h.:h
Super Spike V'Ball + Nintendo World Cup (USA).nes:0003fe98: 8a489848a220a002b5002902850db5012902450d18f001387600e888d0fa68a868aa  .H.H. ....).....).E....8v.....h.h.
Super Spike V'Ball (USA).nes:0001e834: 48a53a48a24aa002b5002902853ab5012902453a18f001387600e888d0fa68853a68  H.:H.J....)..:..).E:...8v.....h.:h
Super Team Games (USA).nes:000010ea: 110012000a000900ad3f0329028518ad40032902451818f001386e3f036e40036e41036e42  .........?.)....@.).E....8n?.n@.nA.nB
Sweet Home (Japan) (Beta).nes:0003f0cc: 8dff9f4a8dff9f60ad466129028517ad47612902451718f001386e46616e4761ad46616020  ...J...`.Fa)....Ga).E....8nFanGa.Fa`
Sweet Home (Japan).nes:0003ffb5: c908d003bd870460ad466129028517ad47612902451718f001386e46616e4761ad4661653a  .......`.Fa)....Ga).E....8nFanGa.Fae:
TaleSpin (Europe).nes:0001c2df: 0f6c0c00a200a004b5e429028500b5e52902450018f0013876e4e888d0fa600a0a0a  .l........).....).E....8v.....`...
TaleSpin (USA).nes:0001c2df: 0f6c0c00a200a004b5e429028500b5e52902450018f0013876e4e888d0fa600a0a0a  .l........).....).E....8v.....`...
Tatakae!! Rahmen Man - Sakuretsu Choujin 102 Gei (Japan).nes:0001d3bd: cd03a51b9dcc0360add00329028518add1032902451818f001386ed0036ed1036ed2036ed3  .......`...)......).E....8n..n..n..n.
Teenage Mutant Ninja Turtles III - The Manhattan Project (USA).nes:0003f803: 0544d004a94a8543a54329028d7f03a54429024d7f0318f00138664366444cf1f7488a48  .D...J.C.C).....D).M.....8fCfDL..H.H
Teenage Mutant Ninja Turtles II - The Manhattan Project (Japan).nes:0003f8e8: 0544d004a94a8543a54329028d7f03a54429024d7f0318f00138664366444cd6f8488a48  .D...J.C.C).....D).M.....8fCfDL..H.H
Tenchi o Kurau II - Shokatsu Koumei Den (Japan).nes:0007ffa2: 60a5f348a2aca004b500290285f3b501290245f318f001387600e888d0faa5ac1869  `..H......).....).E....8v........i
Tenchi o Kurau II - Shokatsu Koumei Den (Japan) (Rev A).nes:0007ffa2: 60a5f348a2aca004b500290285f3b501290245f318f001387600e888d0faa5ac1869  `..H......).....).E....8v........i
Tenchi o Kurau (Japan).nes:0003faa9: f3a4f460a2aca004b500290285eeb501290245ee18f001387600e888d0faa5ac1869  ...`......).....).E....8v........i
Tenchi o Kurau (Japan) (Rev A).nes:0003faa9: f3a4f460a2aca004b500290285eeb501290245ee18f001387600e888d0faa5ac1869  ...`......).....).E....8v........i
Tetris (Europe).nes:00002b69: a90065069d040160b50029028500b5012902450018f001387600e888d0fa60a9008d  ..e....`..).....).E....8v.....`...
Tetris (Europe).nes:000060a6: c8b1e085e34c8ee0a5eb29028dff06a5ec29024dff0618f0013866eb66ec60a6edfeda06  .....L....)......).M.....8f.f.`.....
Tetris (USA).nes:00002b4f: a90065069d040160b50029028500b5012902450018f001387600e888d0fa60a9008d  ..e....`..).....).E....8v.....`...
Tetris (USA).nes:000060a6: c8b1e085e34c8ee0a5eb29028dff06a5ec29024dff0618f0013866eb66ec60a6edfeda06  .....L....)......).M.....8f.f.`.....
Times of Lore (Japan).nes:0001f440: f44cc1ea6015101ca56f29028566a5702902456618f00138666f6670a57018656f60  .L..`....o)..f.p).Ef...8fofp.p.eo`
Times of Lore (USA).nes:0001f43d: f44cbeea6015101ca56f29028566a5702902456618f00138666f6670a57018656f60  .L..`....o)..f.p).Ef...8fofp.p.eo`
Titan (Japan).nes:0001f8c4: 1a051af0f6686048a50d2902850fa50e2902450f18f00138660d660e68850fa50d65  .....h`H..).....).E....8f.f.h....e
Top Rider (Japan).nes:0001dd07: 039d2003cad0f460ad280329028519ad29032902451918f001386e28036e29036e2a036e2b  .. ....`.(.)....).).E....8n(.n).n*.n+
Track & Field II (Europe).nes:0001c1f3: e8d0f160a53ed002a51229028588a53f2902458818f00138663e663fe612a510c903  ...`.>....)....?).E....8f>f?......
Track & Field II (USA).nes:0001c1e2: 06c8d0f6e8d0f160a53e29028588a53f2902458818f00138663e663fe612a510c903  .......`.>)....?).E....8f>f?......
Track & Field II (USA) (Rev A).nes:0001c1e2: 06c8d0f6e8d0f160a53e29028588a53f2902458818f00138663e663fe612a510c903  .......`.>)....?).E....8f>f?......
Twin Eagle (Japan).nes:0001c0fe: 1d68a868aaa51d60b50029028500b5012902450018f001387600e888d0fa6048a900  .h.h...`..).....).E....8v.....`H..
Twin Eagle (USA).nes:0001c0fe: 1d68a868aaa51d60b50029028500b5012902450018f001387600e888d0fa6048a900  .h.h...`..).....).E....8v.....`H..
Uchuusen Cosmo Carrier (Japan).nes:0001d015: 8a489848a22da002b50029028500b5012902450018f001387600e888d0fa68a868aa  .H.H.-....).....).E....8v.....h.h.
Uncanny X-Men, The (USA).nes:0001c298: 8a489848a23aa002b50029028500b5012902450018f001387600e888d0fa68a868aa  .H.H.:....).....).E....8v.....h.h.
Urban Champion (World).nes:00000fa9: f08502a503290f60adec0529028507aded052902450718f001386eec056eed056eee056eef  .....).`...)......).E....8n..n..n..n.
U.S. Championship V'Ball (Japan) (Beta).nes:0001e531: 48a51f48a22fa002b5002902851fb5012902451f18f001387600e888d0fa68851f68  H..H./....).....).E....8v.....h..h
U.S. Championship V'Ball (Japan).nes:0001e612: 48a53a48a24aa002b5002902853ab5012902453a18f001387600e888d0fa68853a68  H.:H.J....)..:..).E:...8v.....h.:h
Ushio to Tora - Shinen no Daiyou (Japan).nes:0001faa9: 8a489848a289a002b50029028500b5012902450018f001387600e888d0fa68a868aa  .H.H......).....).E....8v.....h.h.
Venus Senki - Back the City (Japan).nes:0001c778: a5082a850ba44760ad070529028510ad08052902451018f001386e07056e08056e09056e0a  ..*...G`...)......).E....8n..n..n..n.
Virus (USA) (Beta) (1989).nes:00001e02: a90065069d040160b50029028500b5012902450018f001387600e888d0fa60a9008d  ..e....`..).....).E....8v.....`...
Virus (USA) (Beta) (1989).nes:000060a6: c8b1e085e34c8ee0a5eb29028dff06a5ec29024dff0618f0013866eb66ec60a6edfeda06  .....L....)......).M.....8f.f.`.....
Virus (USA) (Beta) (1990-02-02).nes:00001e02: a90065069d040160b50029028500b5012902450018f001387600e888d0fa60a9008d  ..e....`..).....).E....8v.....`...
Virus (USA) (Beta) (1990-02-02).nes:000060a6: c8b1e085e34c8ee0a5eb29028dff06a5ec29024dff0618f0013866eb66ec60a6edfeda06  .....L....)......).M.....8f.f.`.....
Wall Street Kid (USA).nes:0001f93f: 1a051af0f6686048a50d2902850fa50e2902450f18f00138660d660e68850fa50d65  .....h`H..).....).E....8f.f.h....e
Wanpaku Duck Yume Bouken (Japan) (Beta).nes:0001c2ff: 0f6c0c00a200a004b5c029028500b5c12902450018f0013876c0e888d0fa60a5ff29  .l........).....).E....8v.....`..)
Wanpaku Duck Yume Bouken (Japan).nes:0001c2ff: 0f6c0c00a200a004b5c029028500b5c12902450018f0013876c0e888d0fa60a5ff29  .l........).....).E....8v.....`..)
Wario no Mori (Japan).nes:00038052: 84f384f084f484fbad800529028500ad81052902450018f001386e80056e810560a9908d00  ...........)......).E....8n..n..`....
Wario's Woods (USA).nes:00038052: 84f384f084f484fbad800529028500ad81052902450018f001386e80056e810560a9908d00  ...........)......).E....8n..n..`....
Western Kids (Japan).nes:0003cef5: 8a489848a294a002b50029028500b5012902450018f001387600e888d0fa68a868aa  .H.H......).....).E....8v.....h.h.
Wild Gunman (Japan, USA).nes:0000057b: b9c400d0d01890d2adec0529028507aded052902450718f001386eec056eed056eee056eef  ...........)......).E....8n..n..n..n.
Wild Gunman (World) (Rev A).nes:0000057b: b9c400d0d01890d2adec0529028507aded052902450718f001386eec056eed056eee056eef  ...........)......).E....8n..n..n..n.
World Champ - Super Boxing Great Fight (Europe).nes:0001c2e0: 8a489848a291a002b50029028500b5012902450018f001387600e888d0fa68a868aa  .H.H......).....).E....8v.....h.h.
World Champ - Super Boxing Great Fight (USA).nes:0001c2e0: 8a489848a291a002b50029028500b5012902450018f001387600e888d0fa68a868aa  .H.H......).....).E....8v.....h.h.
World Class Track Meet (USA).nes:000050ec: 0449819903041860ad000329028510ad01032902451018f001386e00036e01036e02036e03  .I.....`...)......).E....8n..n..n..n.
World Class Track Meet (USA) (Rev A).nes:000050f9: 0449819903041860ad000329028510ad01032902451018f001386e00036e01036e02036e03  .I.....`...)......).E....8n..n..n..n.
Zelda II - The Adventure of Link (Europe).nes:0001c19c: f5ee1200a200a009ad1a0529028500ad1b052902450018f001387e1a05e888d0f9205bd220  ...........)......).E....8~...... [.
Zelda II - The Adventure of Link (Europe) (Rev A).nes:0001c19c: f5ee1200a200a009ad1a0529028500ad1b052902450018f001387e1a05e888d0f9205bd220  ...........)......).E....8~...... [.
Zelda II - The Adventure of Link (Europe) (Rev B).nes:0001c19c: f5ee1200a200a009ad1a0529028500ad1b052902450018f001387e1a05e888d0f9205bd220  ...........)......).E....8~...... [.
Zelda II - The Adventure of Link (USA) (GameCube Edition).nes:0001c191: f5ee1200a200a009ad1a0529028500ad1b052902450018f001387e1a05e888d0f92050d220  ...........)......).E....8~...... P.
Zelda II - The Adventure of Link (USA).nes:0001c191: f5ee1200a200a009ad1a0529028500ad1b052902450018f001387e1a05e888d0f92050d220  ...........)......).E....8~...... P.
Zelda no Densetsu 1 - The Hyrule Fantasy (Japan).nes:0001e4a5: e400d0f5a218a00db50029028500b5012902450018f001387600e888d0fae615a511  ..........).....).E....8v.........
