All Night Nippon Super Mario Brothers (Japan) (Promotion Card).fds:00002720: 10f5e609a200a007ada70729028500ada8072902450018f001387ea707e888d0f9ad76074a  ...........)......).E....8~.......v.J
Bishoujo Mahjong Club (Japan) (Unl).fds:0000db6b: 02a9f82502850260b50029028500b5012902450018f001387600e888d0fa60a9008d  ...%...`..).....).E....8v.....`...
Clu Clu Land (Japan) (Disk Writer).fds:00003cc6: f002d651ca10f760a51029028500a5112902450018f0013866106611661266136614  ...Q...`..).....).E....8f.f.f.f.f.
Dandy - Zeuon no Fukkatsu (Japan) [b].fds:000094ba: 0f2e00009848a002a53829028500a5392902450018f001386638663968a8a5386020  .....H...8)....9).E....8f8f9h..8`
Disk Hacker II - Copy Plus 3 (Japan) (Unl).fds:00009cf5: 02a9f82502850260b50029028500b5012902450018f001387600e888d0fa60a9008d  ...%...`..).....).E....8v.....`...
Donkey Kong (Japan) (Disk Writer).fds:0000565f: 009d31038e300360a51829028500a5192902450018f0013866186619661a661b661c  ..1..0.`..).....).E....8f.f.f.f.f.
Donkey Kong Jr. (Japan) (Disk Writer).fds:0000335e: 8e300368a868aa60a51829028500a5192902450018f0013866186619661a661b661c  .0.h.h.`..).....).E....8f.f.f.f.f.
Doremikko (Japan).fds:00007227: 404a682a88d0f660adea0329028528adeb032902452818f001386eea036eeb036eec036eed  @Jh*...`...)..(...).E(...8n..n..n..n.
Fairytale (Japan) [b].fds:000025b6: 02a9f82502850260b50029028500b5012902450018f001387600e888d0fa60a9008d  ...%...`..).....).E....8v.....`...
Family Composer (Japan).fds:00000bf5: 02a9f82502850260b50029028500b5012902450018f001387600e888d0fa60a9008d  ...%...`..).....).E....8v.....`...
I Am a Teacher - Super Mario no Sweater (Japan) [b].fds:000018e3: ff6049ff18690160adec0329028507aded032902450718f001386eec036eed036eee036eef  .`I..i.`...)......).E....8n..n..n..n.
I Am a Teacher - Teami no Kiso (Japan).fds:00008d5f: ff6049ff18690160adec0329028507aded032902450718f001386eec036eed036eee036eef  .`I..i.`...)......).E....8n..n..n..n.
Ice Climber (Japan) (Disk Writer).fds:00006577: a200a005a518d002a93729028500a5192902450018f001387618e888d0fa602092a4  .........7).....).E....8v.....` ..
Kaettekita Mario Brothers (Japan) (Disk Writer).fds:00006bf8: e8e860cacacaca60ad52c029028507ad53c02902450718f001386e52c06e53c06e54c06e55  ..`....`.R.)....S.).E....8nR.nS.nT.nU
Kamen Rider Black - Taiketsu Shadow Moon (Japan).fds:00006b3a: 339555a533955460a55829028530a5592902453018f0013866586659665a665b665c  3.U.3.T`.X)..0.Y).E0...8fXfYfZf[f\
Knight Move (Japan).fds:0000a5d9: e0c898c904d0f660ad760629028dff06ad770629024dff0618f001386e76066e770660a6edfed3  .......`.v.).....w.).M.....8nv.nw.`....
Konamic Ice Hockey (Japan).fds:0001737a: 9ded07a50399ed07a50029028503a5012902450318f0013866006601c602d0c24c7c  ..........).....).E....8f.f.....L|
Link no Bouken - The Legend of Zelda 2 (Japan).fds:00000c35: f5ee1200a200a009ad1a0529028500ad1b052902450018f001387e1a05e888d0f920ad8920  ...........)......).E....8~...... ..
Mahjong (Japan).fds:00005e29: 8e200360a200a020a52329028500a5242902450018f001387623e888d0fa60203b9d  . .`... .#)....$).E....8v#....` ;.
Mahjong Kazoku (Japan).fds:00004321: e74cf678a200a020a52329028500a5242902450018f001387623e888d0fa60a20086  .L.x... .#)....$).E....8v#....`...
Puzzle Boys (Japan) (Disk Writer).fds:00009b39: 02a9f82502850260b50029028500b5012902450018f001387600e888d0fa60a9008d  ...%...`..).....).E....8v.....`...
Soccer (Japan).fds:000027f0: 03290f60a524d027adf00729028507adf1072902450718f001386ef0076ef1076ef2076ef3  .).`.$.'...)......).E....8n..n..n..n.
Super Mario Brothers 2 (Japan) (DV 0).fds:000022fd: 10f5e609a200a007ada70729028500ada8072902450018f001387ea707e888d0f9ad76074a  ...........)......).E....8~.......v.J
Super Mario Brothers (Japan).fds:0000227a: 10f5e609a200a007ada70729028500ada8072902450018f001387ea707e888d0f9ad2207f0  ...........)......).E....8~......."..
Vs. Excitebike (Japan).fds:0000607a: 85e385e485e685e8ade40729028de307ade50729024de30718f001386ee4076ee507ade4070de5  ...........).......).M.....8n..n.......
Yume Koujou Doki Doki Panic (Japan) (DV 1) [b].fds:00003c1d: a5104a9003de3804adba0429028500adbb042902450018f001386eba046ebb042000ae2004  ..J...8....)......).E....8n..n.. .. .
[BIOS] Family Computer Disk System (Japan).bin:000009a9: 02a9f82502850260b50029028500b5012902450018f001387600e888d0fa60a9008d  ...%...`..).....).E....8v.....`...
[BIOS] Twin Famicom (Japan).bin:000009a9: 02a9f82502850260b50029028500b5012902450018f001387600e888d0fa60a9008d  ...%...`..).....).E....8v.....`...
